{
  "project_info": {
    "project_number": "827112972666",
    "firebase_url": "https://chauyarnna.firebaseio.com",
    "project_id": "chauyarnna",
    "storage_bucket": "chauyarnna.appspot.com"
  },
  "client": [
    {
      "client_info": {
        "mobilesdk_app_id": "1:827112972666:android:104a44c1a72c694c",
        "android_client_info": {
          "package_name": "freewill.chauyarnna"
        }
      },
      "oauth_client": [
        {
          "client_id": "827112972666-u8972s2pq7b34majuatk16oa8j1sau73.apps.googleusercontent.com",
          "client_type": 1,
          "android_info": {
            "package_name": "freewill.chauyarnna",
            "certificate_hash": "77f1e44c4aa0a01aeb4ad862aac984b1f413ffa4"
          }
        },
        {
          "client_id": "827112972666-lu6ksc0m257ee9au6vf4ta519o8gpjf4.apps.googleusercontent.com",
          "client_type": 3
        }
      ],
      "api_key": [
        {
          "current_key": "AIzaSyCBcA_FU4zLoH5Z1HjcTdaUUKGNvYP8iyA"
        }
      ],
      "services": {
        "appinvite_service": {
          "other_platform_oauth_client": [
            {
              "client_id": "827112972666-lu6ksc0m257ee9au6vf4ta519o8gpjf4.apps.googleusercontent.com",
              "client_type": 3
            }
          ]
        }
      }
    }
  ],
  "configuration_version": "1"
}